test/usr_wf_C1_data.csv

Record Length,Analog:100000
Sample Interval,1.000000E-04
Vertical Units,V,
Vertical Scale,+1.000000E-01
Vertical Offset,+0.000000E+00
Horizontal Units,s
Horizontal Scale,+1.000000E+00
Model,SDS814X HD
Serial Number,SDS08A0D809841
Software Version,3.8.12.1.1.3.8
Source,CH1
Second,Value
-4.0000000000E-02,-4.166667E-04
-3.9900000000E-02,-1.041667E-03
-3.9800000000E-02,-8.333334E-04
-3.9700000000E-02,-8.333334E-04
-3.9600000000E-02,-8.333334E-04
-3.9500000000E-02,-8.333334E-04
-3.9400000000E-02,-6.250000E-04
-3.9300000000E-02,-8.333334E-04
-3.9200000000E-02,-8.333334E-04
-3.9100000000E-02,-4.166667E-04
-3.9000000000E-02,+0.000000E+00
-3.8900000000E-02,-1.041667E-03
-3.8800000000E-02,-1.041667E-03
-3.8700000000E-02,-6.250000E-04
-3.8600000000E-02,-1.041667E-03
-3.8500000000E-02,-2.083333E-04
-3.8400000000E-02,-8.333334E-04
-3.8300000000E-02,-6.250000E-04
-3.8200000000E-02,-1.250000E-03
-3.8100000000E-02,-8.333334E-04
-3.8000000000E-02,-1.041667E-03
-3.7900000000E-02,-1.041667E-03
-3.7800000000E-02,+0.000000E+00
-3.7700000000E-02,-2.083333E-04
-3.7600000000E-02,-4.166667E-04
-3.7500000000E-02,-1.041667E-03
-3.7400000000E-02,-8.333334E-04
-3.7300000000E-02,-1.250000E-03
-3.7200000000E-02,-8.333334E-04
-3.7100000000E-02,-4.166667E-04
-3.7000000000E-02,-1.666667E-03
-3.6900000000E-02,-8.333334E-04
-3.6800000000E-02,-1.041667E-03
-3.6700000000E-02,-6.250000E-04
-3.6600000000E-02,-8.333334E-04
-3.6500000000E-02,-4.166667E-04
-3.6400000000E-02,-1.250000E-03
-3.6300000000E-02,-4.166667E-04
-3.6200000000E-02,-1.250000E-03
-3.6100000000E-02,-8.333334E-04
-3.6000000000E-02,-8.333334E-04
-3.5900000000E-02,-8.333334E-04
-3.5800000000E-02,-1.041667E-03
-3.5700000000E-02,-1.250000E-03
-3.5600000000E-02,-1.250000E-03
-3.5500000000E-02,-1.250000E-03
-3.5400000000E-02,-6.250000E-04
-3.5300000000E-02,-1.041667E-03
-3.5200000000E-02,-6.250000E-04
-3.5100000000E-02,-4.166667E-04
-3.5000000000E-02,-1.041667E-03
-3.4900000000E-02,-1.041667E-03
-3.4800000000E-02,-8.333334E-04
-3.4700000000E-02,-6.250000E-04
-3.4600000000E-02,-6.250000E-04
-3.4500000000E-02,-6.250000E-04
-3.4400000000E-02,+0.000000E+00
-3.4300000000E-02,-6.250000E-04
-3.4200000000E-02,-1.458333E-03
-3.4100000000E-02,-4.166667E-04
-3.4000000000E-02,-6.250000E-04
-3.3900000000E-02,-2.083333E-04
-3.3800000000E-02,-1.041667E-03
-3.3700000000E-02,-8.333334E-04
-3.3600000000E-02,-8.333334E-04
-3.3500000000E-02,-4.166667E-04
-3.3400000000E-02,-4.166667E-04
-3.3300000000E-02,-1.041667E-03
-3.3200000000E-02,-8.333334E-04
-3.3100000000E-02,-4.166667E-04
-3.3000000000E-02,-6.250000E-04
-3.2900000000E-02,-1.041667E-03
-3.2800000000E-02,-6.250000E-04
-3.2700000000E-02,+0.000000E+00
-3.2600000000E-02,-2.083333E-04
-3.2500000000E-02,-1.041667E-03
-3.2400000000E-02,-8.333334E-04
-3.2300000000E-02,-1.041667E-03
-3.2200000000E-02,-4.166667E-04
-3.2100000000E-02,-4.166667E-04
-3.2000000000E-02,-2.083333E-04
-3.1900000000E-02,-2.083333E-04
-3.1800000000E-02,-4.166667E-04
-3.1700000000E-02,-4.166667E-04
-3.1600000000E-02,-6.250000E-04
-3.1500000000E-02,-2.083333E-04
-3.1400000000E-02,-6.250000E-04
-3.1300000000E-02,-6.250000E-04
-3.1200000000E-02,-2.083333E-04
-3.1100000000E-02,-6.250000E-04
-3.1000000000E-02,-2.083333E-04
-3.0900000000E-02,-6.250000E-04
-3.0800000000E-02,-1.041667E-03
-3.0700000000E-02,-8.333334E-04
-3.0600000000E-02,-6.250000E-04
-3.0500000000E-02,-1.041667E-03
-3.0400000000E-02,+0.000000E+00
-3.0300000000E-02,-8.333334E-04
-3.0200000000E-02,-1.041667E-03
-3.0100000000E-02,+2.083333E-04
-3.0000000000E-02,-2.083333E-04
-2.9900000000E-02,-1.041667E-03
-2.9800000000E-02,-6.250000E-04
-2.9700000000E-02,-2.083333E-04
-2.9600000000E-02,-1.250000E-03
-2.9500000000E-02,-6.250000E-04
-2.9400000000E-02,-2.083333E-04
-2.9300000000E-02,-8.333334E-04
-2.9200000000E-02,-1.041667E-03
-2.9100000000E-02,-6.250000E-04
-2.9000000000E-02,-1.666667E-03
-2.8900000000E-02,-2.083333E-04
-2.8800000000E-02,-8.333334E-04
-2.8700000000E-02,-4.166667E-04
-2.8600000000E-02,-6.250000E-04
-2.8500000000E-02,-6.250000E-04
-2.8400000000E-02,-4.166667E-04
-2.8300000000E-02,-8.333334E-04
-2.8200000000E-02,-6.250000E-04
-2.8100000000E-02,-6.250000E-04
-2.8000000000E-02,-8.333334E-04
-2.7900000000E-02,-6.250000E-04
-2.7800000000E-02,-2.083333E-04
-2.7700000000E-02,-6.250000E-04
-2.7600000000E-02,-8.333334E-04
-2.7500000000E-02,-6.250000E-04
-2.7400000000E-02,-2.083333E-04
-2.7300000000E-02,-4.166667E-04
-2.7200000000E-02,-2.083333E-04
-2.7100000000E-02,-4.166667E-04
-2.7000000000E-02,-4.166667E-04
-2.6900000000E-02,-1.041667E-03
-2.6800000000E-02,-4.166667E-04
-2.6700000000E-02,-6.250000E-04
-2.6600000000E-02,-2.083333E-04
-2.6500000000E-02,-4.166667E-04
-2.6400000000E-02,-8.333334E-04
-2.6300000000E-02,-2.083333E-04
-2.6200000000E-02,-4.166667E-04
-2.6100000000E-02,-8.333334E-04
-2.6000000000E-02,-4.166667E-04
-2.5900000000E-02,-1.250000E-03
-2.5800000000E-02,-1.041667E-03
-2.5700000000E-02,-1.041667E-03
-2.5600000000E-02,-2.083333E-04
-2.5500000000E-02,-8.333334E-04
-2.5400000000E-02,-2.083333E-04
-2.5300000000E-02,-8.333334E-04
-2.5200000000E-02,-1.041667E-03
-2.5100000000E-02,-8.333334E-04
-2.5000000000E-02,-4.166667E-04
-2.4900000000E-02,-1.250000E-03
-2.4800000000E-02,-6.250000E-04
-2.4700000000E-02,-1.250000E-03
-2.4600000000E-02,-4.166667E-04
-2.4500000000E-02,-2.083333E-04
-2.4400000000E-02,-6.250000E-04
-2.4300000000E-02,-8.333334E-04
-2.4200000000E-02,-8.333334E-04
-2.4100000000E-02,-1.666667E-03
-2.4000000000E-02,-4.166667E-04
-2.3900000000E-02,-6.250000E-04
-2.3800000000E-02,-4.166667E-04
-2.3700000000E-02,-2.083333E-04
-2.3600000000E-02,+0.000000E+00
-2.3500000000E-02,-8.333334E-04
-2.3400000000E-02,-1.041667E-03
-2.3300000000E-02,-6.250000E-04
-2.3200000000E-02,-4.166667E-04
-2.3100000000E-02,-8.333334E-04
-2.3000000000E-02,-1.666667E-03
-2.2900000000E-02,+0.000000E+00
-2.2800000000E-02,+0.000000E+00
-2.2700000000E-02,-8.333334E-04
-2.2600000000E-02,-2.083333E-04
-2.2500000000E-02,-8.333334E-04
-2.2400000000E-02,-6.250000E-04
-2.2300000000E-02,-8.333334E-04
-2.2200000000E-02,-6.250000E-04
-2.2100000000E-02,-4.166667E-04
-2.2000000000E-02,-4.166667E-04
-2.1900000000E-02,-8.333334E-04
-2.1800000000E-02,-1.250000E-03
-2.1700000000E-02,-4.166667E-04
-2.1600000000E-02,-6.250000E-04
-2.1500000000E-02,-1.041667E-03
-2.1400000000E-02,-6.250000E-04
-2.1300000000E-02,-1.041667E-03
-2.1200000000E-02,-6.250000E-04
-2.1100000000E-02,-4.166667E-04
-2.1000000000E-02,-4.166667E-04
-2.0900000000E-02,-2.083333E-04
-2.0800000000E-02,-1.250000E-03
-2.0700000000E-02,-4.166667E-04
-2.0600000000E-02,+0.000000E+00
-2.0500000000E-02,-8.333334E-04
-2.0400000000E-02,-2.083333E-04
-2.0300000000E-02,-4.166667E-04
-2.0200000000E-02,-1.041667E-03
-2.0100000000E-02,+2.083333E-04
-2.0000000000E-02,-8.333334E-04
-1.9900000000E-02,-8.333334E-04
-1.9800000000E-02,-6.250000E-04
-1.9700000000E-02,-1.041667E-03
-1.9600000000E-02,-1.250000E-03
-1.9500000000E-02,-4.166667E-04
-1.9400000000E-02,-2.083333E-04
-1.9300000000E-02,-1.250000E-03
-1.9200000000E-02,-1.458333E-03
-1.9100000000E-02,-4.166667E-04
-1.9000000000E-02,-6.250000E-04
-1.8900000000E-02,-8.333334E-04
-1.8800000000E-02,-2.083333E-04
-1.8700000000E-02,-6.250000E-04
-1.8600000000E-02,-1.250000E-03
-1.8500000000E-02,-6.250000E-04
-1.8400000000E-02,-1.041667E-03
-1.8300000000E-02,-1.041667E-03
-1.8200000000E-02,-1.041667E-03
-1.8100000000E-02,-8.333334E-04
-1.8000000000E-02,-6.250000E-04
-1.7900000000E-02,-1.250000E-03
-1.7800000000E-02,-1.250000E-03
-1.7700000000E-02,-4.166667E-04
-1.7600000000E-02,-8.333334E-04
-1.7500000000E-02,-1.041667E-03
-1.7400000000E-02,-1.041667E-03
-1.7300000000E-02,-1.250000E-03
-1.7200000000E-02,-6.250000E-04
-1.7100000000E-02,+0.000000E+00
-1.7000000000E-02,-8.333334E-04
-1.6900000000E-02,-1.041667E-03
-1.6800000000E-02,-1.041667E-03
-1.6700000000E-02,-1.041667E-03
-1.6600000000E-02,-1.875000E-03
-1.6500000000E-02,-4.166667E-04
-1.6400000000E-02,-4.166667E-04
-1.6300000000E-02,-6.250000E-04
-1.6200000000E-02,-1.250000E-03
-1.6100000000E-02,-4.166667E-04
-1.6000000000E-02,-6.250000E-04
-1.5900000000E-02,-2.083333E-04
-1.5800000000E-02,-2.083333E-04
-1.5700000000E-02,-1.041667E-03
-1.5600000000E-02,-6.250000E-04
-1.5500000000E-02,-6.250000E-04
-1.5400000000E-02,-1.458333E-03
-1.5300000000E-02,-1.666667E-03
-1.5200000000E-02,-2.083333E-04
-1.5100000000E-02,-8.333334E-04
-1.5000000000E-02,-1.041667E-03
-1.4900000000E-02,-6.250000E-04
-1.4800000000E-02,-8.333334E-04
-1.4700000000E-02,-1.041667E-03
-1.4600000000E-02,-6.250000E-04
-1.4500000000E-02,-6.250000E-04
-1.4400000000E-02,-6.250000E-04
-1.4300000000E-02,-1.250000E-03
-1.4200000000E-02,-2.083333E-04
-1.4100000000E-02,+0.000000E+00
-1.4000000000E-02,-1.250000E-03
-1.3900000000E-02,-8.333334E-04
-1.3800000000E-02,-1.875000E-03
-1.3700000000E-02,-4.166667E-04
-1.3600000000E-02,-1.458333E-03
-1.3500000000E-02,-1.041667E-03
-1.3400000000E-02,-1.458333E-03
-1.3300000000E-02,-8.333334E-04
-1.3200000000E-02,-4.166667E-04
-1.3100000000E-02,-1.250000E-03
-1.3000000000E-02,-4.166667E-04
-1.2900000000E-02,-1.250000E-03
-1.2800000000E-02,-8.333334E-04
-1.2700000000E-02,+0.000000E+00
-1.2600000000E-02,-1.041667E-03
-1.2500000000E-02,-8.333334E-04
-1.2400000000E-02,-1.041667E-03
-1.2300000000E-02,-6.250000E-04
-1.2200000000E-02,-1.666667E-03
-1.2100000000E-02,-6.250000E-04
-1.2000000000E-02,-1.041667E-03
-1.1900000000E-02,-1.250000E-03
-1.1800000000E-02,-8.333334E-04
-1.1700000000E-02,-4.166667E-04
-1.1600000000E-02,-4.166667E-04
-1.1500000000E-02,-8.333334E-04
-1.1400000000E-02,-1.250000E-03
-1.1300000000E-02,-1.041667E-03
-1.1200000000E-02,-8.333334E-04
-1.1100000000E-02,-1.250000E-03
-1.1000000000E-02,-8.333334E-04
-1.0900000000E-02,-8.333334E-04
-1.0800000000E-02,-6.250000E-04
-1.0700000000E-02,-1.666667E-03
-1.0600000000E-02,-1.041667E-03
-1.0500000000E-02,-8.333334E-04
-1.0400000000E-02,-1.458333E-03
-1.0300000000E-02,-1.041667E-03
-1.0200000000E-02,-8.333334E-04
-1.0100000000E-02,-1.041667E-03
-1.0000000000E-02,-1.041667E-03
-9.9000000000E-03,-1.666667E-03
-9.8000000000E-03,-1.041667E-03
-9.7000000000E-03,-1.666667E-03
-9.6000000000E-03,-2.500000E-03
-9.5000000000E-03,-1.250000E-03
-9.4000000000E-03,-8.333334E-04
-9.3000000000E-03,-1.041667E-03
-9.2000000000E-03,-1.875000E-03
-9.1000000000E-03,-1.041667E-03
-9.0000000000E-03,-6.250000E-04
-8.9000000000E-03,-1.250000E-03
-8.8000000000E-03,-1.458333E-03
-8.7000000000E-03,-1.250000E-03
-8.6000000000E-03,-1.250000E-03
-8.5000000000E-03,-1.250000E-03
-8.4000000000E-03,-1.250000E-03
-8.3000000000E-03,-1.666667E-03
-8.2000000000E-03,-1.875000E-03
-8.1000000000E-03,-1.666667E-03
-8.0000000000E-03,-1.458333E-03
-7.9000000000E-03,-1.458333E-03
-7.8000000000E-03,-1.666667E-03
-7.7000000000E-03,-1.666667E-03
-7.6000000000E-03,-2.291667E-03
-7.5000000000E-03,-1.250000E-03
-7.4000000000E-03,-1.666667E-03
-7.3000000000E-03,-2.083333E-03
-7.2000000000E-03,-1.250000E-03
-7.1000000000E-03,-1.875000E-03
-7.0000000000E-03,-1.458333E-03
-6.9000000000E-03,-2.083333E-03
-6.8000000000E-03,-1.666667E-03
-6.7000000000E-03,-2.083333E-03
-6.6000000000E-03,-1.458333E-03
-6.5000000000E-03,-2.708333E-03
-6.4000000000E-03,-1.250000E-03
-6.3000000000E-03,-2.708333E-03
-6.2000000000E-03,-2.083333E-03
-6.1000000000E-03,-2.916667E-03
-6.0000000000E-03,-2.500000E-03
-5.9000000000E-03,-2.916667E-03
-5.8000000000E-03,-3.125000E-03
-5.7000000000E-03,-2.916667E-03
-5.6000000000E-03,-2.291667E-03
-5.5000000000E-03,-2.500000E-03
-5.4000000000E-03,-2.083333E-03
-5.3000000000E-03,-1.875000E-03
-5.2000000000E-03,-2.083333E-03
-5.1000000000E-03,-1.458333E-03
-5.0000000000E-03,-1.458333E-03
-4.9000000000E-03,-8.333334E-04
-4.8000000000E-03,-6.250000E-04
-4.7000000000E-03,-1.041667E-03
-4.6000000000E-03,-1.666667E-03
-4.5000000000E-03,-1.666667E-03
-4.4000000000E-03,-1.458333E-03
-4.3000000000E-03,-1.666667E-03
-4.2000000000E-03,-2.708333E-03
-4.1000000000E-03,-3.541667E-03
-4.0000000000E-03,-4.375000E-03
-3.9000000000E-03,-5.833333E-03
-3.8000000000E-03,-4.791667E-03
-3.7000000000E-03,-5.416667E-03
-3.6000000000E-03,-3.958333E-03
-3.5000000000E-03,-4.583334E-03
-3.4000000000E-03,-4.583334E-03
-3.3000000000E-03,-4.166667E-03
-3.2000000000E-03,-6.041667E-03
-3.1000000000E-03,-6.666667E-03
-3.0000000000E-03,-6.458334E-03
-2.9000000000E-03,-5.000000E-03
-2.8000000000E-03,-5.000000E-03
-2.7000000000E-03,-7.291667E-03
-2.6000000000E-03,-9.583334E-03
-2.5000000000E-03,-8.958333E-03
-2.4000000000E-03,-7.708333E-03
-2.3000000000E-03,-7.916667E-03
-2.2000000000E-03,-1.166667E-02
-2.1000000000E-03,-1.104167E-02
-2.0000000000E-03,-9.791667E-03
-1.9000000000E-03,-1.020833E-02
-1.8000000000E-03,-9.791667E-03
-1.7000000000E-03,-1.020833E-02
-1.6000000000E-03,-1.208333E-02
-1.5000000000E-03,-1.312500E-02
-1.4000000000E-03,-1.437500E-02
-1.3000000000E-03,-1.520833E-02
-1.2000000000E-03,-1.875000E-02
-1.1000000000E-03,-2.229167E-02
-1.0000000000E-03,-2.916667E-02
-9.0000000000E-04,-4.541667E-02
-8.0000000000E-04,-6.187500E-02
-7.0000000000E-04,-8.208334E-02
-6.0000000000E-04,-1.381250E-01
-5.0000000000E-04,-2.387500E-01
-4.0000000000E-04,-3.979167E-01
-3.0000000000E-04,-4.260417E-01
-2.0000000000E-04,-4.260417E-01
-1.0000000000E-04,-4.260417E-01
+0.0000000000E+00,-3.658333E-01
+1.0000000000E-04,+4.258333E-01
+2.0000000000E-04,-7.250001E-02
+3.0000000000E-04,-2.350000E-01
+4.0000000000E-04,-1.102083E-01
+5.0000000000E-04,-8.645833E-02
+6.0000000000E-04,-2.312500E-02
+7.0000000000E-04,-3.062500E-02
+8.0000000000E-04,-7.500000E-03
+9.0000000000E-04,-2.291667E-03
+1.0000000000E-03,+6.041667E-02
+1.1000000000E-03,+2.247917E-01
+1.2000000000E-03,+4.150000E-01
+1.3000000000E-03,+4.258333E-01
+1.4000000000E-03,+4.258333E-01
+1.5000000000E-03,+4.258333E-01
+1.6000000000E-03,+3.252083E-01
+1.7000000000E-03,+2.095833E-01
+1.8000000000E-03,+1.322917E-01
+1.9000000000E-03,+8.812501E-02
+2.0000000000E-03,+6.666667E-03
+2.1000000000E-03,+2.312500E-02
+2.2000000000E-03,+4.166667E-02
+2.3000000000E-03,-3.729167E-02
+2.4000000000E-03,-1.193750E-01
+2.5000000000E-03,-2.287500E-01
+2.6000000000E-03,-3.779167E-01
+2.7000000000E-03,-3.747917E-01
+2.8000000000E-03,-4.260417E-01
+2.9000000000E-03,-4.260417E-01
+3.0000000000E-03,-4.260417E-01
+3.1000000000E-03,-1.287500E-01
+3.2000000000E-03,-1.666667E-03
+3.3000000000E-03,-1.095833E-01
+3.4000000000E-03,-6.187500E-02
+3.5000000000E-03,-1.062500E-02
+3.6000000000E-03,-3.833333E-02
+3.7000000000E-03,-3.291667E-02
+3.8000000000E-03,-1.395833E-02
+3.9000000000E-03,+2.291667E-02
+4.0000000000E-03,+3.291667E-02
+4.1000000000E-03,-3.729167E-02
+4.2000000000E-03,+3.104167E-02
+4.3000000000E-03,+2.325000E-01
+4.4000000000E-03,+4.258333E-01
+4.5000000000E-03,+4.258333E-01
+4.6000000000E-03,+4.258333E-01
+4.7000000000E-03,+4.258333E-01
+4.8000000000E-03,+3.322917E-01
+4.9000000000E-03,+1.675000E-01
+5.0000000000E-03,+1.025000E-01
+5.1000000000E-03,+8.333334E-02
+5.2000000000E-03,+7.562500E-02
+5.3000000000E-03,+7.562500E-02
+5.4000000000E-03,+6.458334E-03
+5.5000000000E-03,-9.562501E-02
+5.6000000000E-03,-1.270833E-01
+5.7000000000E-03,-1.554167E-01
+5.8000000000E-03,-2.602083E-01
+5.9000000000E-03,-4.139583E-01
+6.0000000000E-03,-4.260417E-01
+6.1000000000E-03,-4.260417E-01
+6.2000000000E-03,-3.072917E-01
+6.3000000000E-03,-1.277083E-01
+6.4000000000E-03,-1.016667E-01
+6.5000000000E-03,-5.979167E-02
+6.6000000000E-03,-5.270834E-02
+6.7000000000E-03,-3.666667E-02
+6.8000000000E-03,-3.479167E-02
+6.9000000000E-03,-5.958334E-02
+7.0000000000E-03,+3.729167E-02
+7.1000000000E-03,+3.958333E-01
+7.2000000000E-03,+1.045833E-01
+7.3000000000E-03,-3.575000E-01
+7.4000000000E-03,-2.166667E-02
+7.5000000000E-03,+1.983333E-01
+7.6000000000E-03,+4.012500E-01
+7.7000000000E-03,+4.258333E-01
+7.8000000000E-03,+4.258333E-01
+7.9000000000E-03,+3.639583E-01
+8.0000000000E-03,+2.254167E-01
+8.1000000000E-03,+1.358333E-01
+8.2000000000E-03,+1.627083E-01
+8.3000000000E-03,+1.504167E-01
+8.4000000000E-03,+7.229166E-02
+8.5000000000E-03,+7.500000E-03
+8.6000000000E-03,-2.416667E-02
+8.7000000000E-03,-7.395834E-02
+8.8000000000E-03,-5.770833E-02
+8.9000000000E-03,-1.602083E-01
+9.0000000000E-03,-3.964584E-01
+9.1000000000E-03,-4.260417E-01
+9.2000000000E-03,-4.260417E-01
+9.3000000000E-03,-3.397917E-01
+9.4000000000E-03,-1.922917E-01
+9.5000000000E-03,-1.441667E-01
+9.6000000000E-03,-1.018750E-01
+9.7000000000E-03,-2.041667E-02
+9.8000000000E-03,-4.916667E-02
+9.9000000000E-03,-9.729167E-02
+1.0000000000E-02,-1.222917E-01
+1.0100000000E-02,-1.106250E-01
+1.0200000000E-02,+2.552083E-01
+1.0300000000E-02,+2.258333E-01
+1.0400000000E-02,+2.979167E-02
+1.0500000000E-02,-4.135417E-01
+1.0600000000E-02,-1.433333E-01
+1.0700000000E-02,+2.152083E-01
+1.0800000000E-02,+4.258333E-01
+1.0900000000E-02,+4.258333E-01
+1.1000000000E-02,+3.360417E-01
+1.1100000000E-02,+2.741667E-01
+1.1200000000E-02,+2.758333E-01
+1.1300000000E-02,+2.302083E-01
+1.1400000000E-02,+2.010417E-01
+1.1500000000E-02,+1.072917E-01
+1.1600000000E-02,+2.395833E-02
+1.1700000000E-02,+2.520833E-02
+1.1800000000E-02,+7.916667E-03
+1.1900000000E-02,-4.333333E-02
+1.2000000000E-02,-1.281250E-01
+1.2100000000E-02,-2.833333E-01
+1.2200000000E-02,-4.260417E-01
+1.2300000000E-02,-3.693750E-01
+1.2400000000E-02,-2.870833E-01
+1.2500000000E-02,-2.500000E-01
+1.2600000000E-02,-1.250000E-01
+1.2700000000E-02,-1.172917E-01
+1.2800000000E-02,-5.416667E-03
+1.2900000000E-02,+5.187500E-02
+1.3000000000E-02,-1.075000E-01
+1.3100000000E-02,-2.412500E-01
+1.3200000000E-02,-2.133333E-01
+1.3300000000E-02,-1.504167E-01
+1.3400000000E-02,-4.375000E-03
+1.3500000000E-02,+4.258333E-01
+1.3600000000E-02,+1.097917E-01
+1.3700000000E-02,-4.260417E-01
+1.3800000000E-02,+1.291667E-02
+1.3900000000E-02,+3.335417E-01
+1.4000000000E-02,+4.170834E-01
+1.4100000000E-02,+4.066667E-01
+1.4200000000E-02,+2.783333E-01
+1.4300000000E-02,+3.306250E-01
+1.4400000000E-02,+3.204167E-01
+1.4500000000E-02,+2.125000E-01
+1.4600000000E-02,+1.327083E-01
+1.4700000000E-02,+8.645833E-02
+1.4800000000E-02,+5.062500E-02
+1.4900000000E-02,+6.750000E-02
+1.5000000000E-02,-1.479167E-02
+1.5100000000E-02,-1.179167E-01
+1.5200000000E-02,-2.154167E-01
+1.5300000000E-02,-3.104167E-01
+1.5400000000E-02,-3.860417E-01
+1.5500000000E-02,-2.487500E-01
+1.5600000000E-02,-2.081250E-01
+1.5700000000E-02,-2.327083E-01
+1.5800000000E-02,-6.104167E-02
+1.5900000000E-02,+1.875000E-02
+1.6000000000E-02,-6.875000E-03
+1.6100000000E-02,-1.500000E-02
+1.6200000000E-02,-2.131250E-01
+1.6300000000E-02,-2.879167E-01
+1.6400000000E-02,-2.047917E-01
+1.6500000000E-02,-1.689583E-01
+1.6600000000E-02,+1.281250E-01
+1.6700000000E-02,+2.408333E-01
+1.6800000000E-02,-3.250000E-01
+1.6900000000E-02,-2.350000E-01
+1.7000000000E-02,+1.397917E-01
+1.7100000000E-02,+2.616667E-01
+1.7200000000E-02,+3.287500E-01
+1.7300000000E-02,+3.710417E-01
+1.7400000000E-02,+3.443750E-01
+1.7500000000E-02,+3.541667E-01
+1.7600000000E-02,+2.862500E-01
+1.7700000000E-02,+1.639583E-01
+1.7800000000E-02,+1.352083E-01
+1.7900000000E-02,+1.420833E-01
+1.8000000000E-02,+7.375000E-02
+1.8100000000E-02,+4.125000E-02
+1.8200000000E-02,-5.520833E-02
+1.8300000000E-02,-2.241667E-01
+1.8400000000E-02,-2.160417E-01
+1.8500000000E-02,-2.627083E-01
+1.8600000000E-02,-3.020833E-01
+1.8700000000E-02,-2.066667E-01
+1.8800000000E-02,-1.731250E-01
+1.8900000000E-02,-1.045833E-01
+1.9000000000E-02,+8.916667E-02
+1.9100000000E-02,+3.875000E-02
+1.9200000000E-02,-2.791667E-02
+1.9300000000E-02,-6.958333E-02
+1.9400000000E-02,-2.400000E-01
+1.9500000000E-02,-2.960417E-01
+1.9600000000E-02,-2.797917E-01
+1.9700000000E-02,-2.154167E-01
+1.9800000000E-02,+5.625000E-02
+1.9900000000E-02,+1.366667E-01
+2.0000000000E-02,-1.745833E-01
+2.0100000000E-02,-9.875000E-02
+2.0200000000E-02,+9.541667E-02
+2.0300000000E-02,+1.777083E-01
+2.0400000000E-02,+2.985417E-01
+2.0500000000E-02,+4.258333E-01
+2.0600000000E-02,+3.585417E-01
+2.0700000000E-02,+3.670833E-01
+2.0800000000E-02,+2.683333E-01
+2.0900000000E-02,+1.704167E-01
+2.1000000000E-02,+2.241667E-01
+2.1100000000E-02,+1.583333E-01
+2.1200000000E-02,+4.333333E-02
+2.1300000000E-02,-9.166667E-03
+2.1400000000E-02,-1.275000E-01
+2.1500000000E-02,-2.133333E-01
