test/usr_wf_C4_data.csv

Record Length,Analog:100000
Sample Interval,1.000000E-04
Vertical Units,V,
Vertical Scale,+5.000000E+00
Vertical Offset,-1.233333E+01
Horizontal Units,s
Horizontal Scale,+1.000000E+00
Model,SDS814X HD
Serial Number,SDS08A0D809841
Software Version,3.8.12.1.1.3.8
Source,CH4
Second,Value
-4.0000000000E-02,-3.125069E-02
-3.9900000000E-02,-6.250069E-02
-3.9800000000E-02,-7.291736E-02
-3.9700000000E-02,-7.291736E-02
-3.9600000000E-02,-7.291736E-02
-3.9500000000E-02,-8.333402E-02
-3.9400000000E-02,-6.250069E-02
-3.9300000000E-02,-8.333402E-02
-3.9200000000E-02,-7.291736E-02
-3.9100000000E-02,-8.333402E-02
-3.9000000000E-02,-6.250069E-02
-3.8900000000E-02,-6.250069E-02
-3.8800000000E-02,-5.208402E-02
-3.8700000000E-02,-6.250069E-02
-3.8600000000E-02,-4.166735E-02
-3.8500000000E-02,-8.333402E-02
-3.8400000000E-02,-8.333402E-02
-3.8300000000E-02,-7.291736E-02
-3.8200000000E-02,-5.208402E-02
-3.8100000000E-02,-3.125069E-02
-3.8000000000E-02,-7.291736E-02
-3.7900000000E-02,-5.208402E-02
-3.7800000000E-02,-7.291736E-02
-3.7700000000E-02,-5.208402E-02
-3.7600000000E-02,-4.166735E-02
-3.7500000000E-02,-5.208402E-02
-3.7400000000E-02,-7.291736E-02
-3.7300000000E-02,-6.250069E-02
-3.7200000000E-02,-5.208402E-02
-3.7100000000E-02,-3.125069E-02
-3.7000000000E-02,-4.166735E-02
-3.6900000000E-02,-6.250069E-02
-3.6800000000E-02,-7.291736E-02
-3.6700000000E-02,-6.250069E-02
-3.6600000000E-02,-6.250069E-02
-3.6500000000E-02,-5.208402E-02
-3.6400000000E-02,-5.208402E-02
-3.6300000000E-02,-6.250069E-02
-3.6200000000E-02,-5.208402E-02
-3.6100000000E-02,-6.250069E-02
-3.6000000000E-02,-6.250069E-02
-3.5900000000E-02,-5.208402E-02
-3.5800000000E-02,-5.208402E-02
-3.5700000000E-02,-6.250069E-02
-3.5600000000E-02,-7.291736E-02
-3.5500000000E-02,-7.291736E-02
-3.5400000000E-02,-7.291736E-02
-3.5300000000E-02,-6.250069E-02
-3.5200000000E-02,-3.125069E-02
-3.5100000000E-02,-8.333402E-02
-3.5000000000E-02,-5.208402E-02
-3.4900000000E-02,-8.333402E-02
-3.4800000000E-02,-6.250069E-02
-3.4700000000E-02,-5.208402E-02
-3.4600000000E-02,-6.250069E-02
-3.4500000000E-02,-7.291736E-02
-3.4400000000E-02,-7.291736E-02
-3.4300000000E-02,-6.250069E-02
-3.4200000000E-02,-6.250069E-02
-3.4100000000E-02,-7.291736E-02
-3.4000000000E-02,-5.208402E-02
-3.3900000000E-02,-5.208402E-02
-3.3800000000E-02,-3.125069E-02
-3.3700000000E-02,-5.208402E-02
-3.3600000000E-02,-6.250069E-02
-3.3500000000E-02,-7.291736E-02
-3.3400000000E-02,-4.166735E-02
-3.3300000000E-02,-4.166735E-02
-3.3200000000E-02,-3.125069E-02
-3.3100000000E-02,-7.291736E-02
-3.3000000000E-02,-3.125069E-02
-3.2900000000E-02,-6.250069E-02
-3.2800000000E-02,-4.166735E-02
-3.2700000000E-02,-5.208402E-02
-3.2600000000E-02,-5.208402E-02
-3.2500000000E-02,-4.166735E-02
-3.2400000000E-02,-7.291736E-02
-3.2300000000E-02,-6.250069E-02
-3.2200000000E-02,-8.333402E-02
-3.2100000000E-02,-5.208402E-02
-3.2000000000E-02,-5.208402E-02
-3.1900000000E-02,-5.208402E-02
-3.1800000000E-02,-9.375069E-02
-3.1700000000E-02,-9.375069E-02
-3.1600000000E-02,-7.291736E-02
-3.1500000000E-02,-7.291736E-02
-3.1400000000E-02,-7.291736E-02
-3.1300000000E-02,-6.250069E-02
-3.1200000000E-02,-3.125069E-02
-3.1100000000E-02,-5.208402E-02
-3.1000000000E-02,-5.208402E-02
-3.0900000000E-02,-6.854534E-07
-3.0800000000E-02,-5.208402E-02
-3.0700000000E-02,-7.291736E-02
-3.0600000000E-02,-6.250069E-02
-3.0500000000E-02,-5.208402E-02
-3.0400000000E-02,-8.333402E-02
-3.0300000000E-02,-6.250069E-02
-3.0200000000E-02,-6.250069E-02
-3.0100000000E-02,-4.166735E-02
-3.0000000000E-02,-6.250069E-02
-2.9900000000E-02,-2.083402E-02
-2.9800000000E-02,-4.166735E-02
-2.9700000000E-02,-4.166735E-02
-2.9600000000E-02,-8.333402E-02
-2.9500000000E-02,-5.208402E-02
-2.9400000000E-02,-5.208402E-02
-2.9300000000E-02,-8.333402E-02
-2.9200000000E-02,-4.166735E-02
-2.9100000000E-02,-4.166735E-02
-2.9000000000E-02,-4.166735E-02
-2.8900000000E-02,-6.250069E-02
-2.8800000000E-02,-8.333402E-02
-2.8700000000E-02,-7.291736E-02
-2.8600000000E-02,-4.166735E-02
-2.8500000000E-02,-4.166735E-02
-2.8400000000E-02,-6.250069E-02
-2.8300000000E-02,-7.291736E-02
-2.8200000000E-02,-5.208402E-02
-2.8100000000E-02,-7.291736E-02
-2.8000000000E-02,-5.208402E-02
-2.7900000000E-02,-8.333402E-02
-2.7800000000E-02,-4.166735E-02
-2.7700000000E-02,-6.250069E-02
-2.7600000000E-02,-8.333402E-02
-2.7500000000E-02,-7.291736E-02
-2.7400000000E-02,-5.208402E-02
-2.7300000000E-02,-4.166735E-02
-2.7200000000E-02,-9.375069E-02
-2.7100000000E-02,-5.208402E-02
-2.7000000000E-02,-4.166735E-02
-2.6900000000E-02,-5.208402E-02
-2.6800000000E-02,-6.250069E-02
-2.6700000000E-02,-6.250069E-02
-2.6600000000E-02,-6.250069E-02
-2.6500000000E-02,-5.208402E-02
-2.6400000000E-02,-4.166735E-02
-2.6300000000E-02,-5.208402E-02
-2.6200000000E-02,-5.208402E-02
-2.6100000000E-02,-7.291736E-02
-2.6000000000E-02,-4.166735E-02
-2.5900000000E-02,-5.208402E-02
-2.5800000000E-02,-7.291736E-02
-2.5700000000E-02,-7.291736E-02
-2.5600000000E-02,-8.333402E-02
-2.5500000000E-02,-6.250069E-02
-2.5400000000E-02,-5.208402E-02
-2.5300000000E-02,-6.250069E-02
-2.5200000000E-02,-5.208402E-02
-2.5100000000E-02,-8.333402E-02
-2.5000000000E-02,-8.333402E-02
-2.4900000000E-02,-6.250069E-02
-2.4800000000E-02,-4.166735E-02
-2.4700000000E-02,-4.166735E-02
-2.4600000000E-02,-7.291736E-02
-2.4500000000E-02,-5.208402E-02
-2.4400000000E-02,-5.208402E-02
-2.4300000000E-02,-4.166735E-02
-2.4200000000E-02,-4.166735E-02
-2.4100000000E-02,-7.291736E-02
-2.4000000000E-02,-5.208402E-02
-2.3900000000E-02,-5.208402E-02
-2.3800000000E-02,-6.250069E-02
-2.3700000000E-02,-5.208402E-02
-2.3600000000E-02,-6.250069E-02
-2.3500000000E-02,-8.333402E-02
-2.3400000000E-02,-5.208402E-02
-2.3300000000E-02,-7.291736E-02
-2.3200000000E-02,-4.166735E-02
-2.3100000000E-02,-6.250069E-02
-2.3000000000E-02,-5.208402E-02
-2.2900000000E-02,-5.208402E-02
-2.2800000000E-02,-6.250069E-02
-2.2700000000E-02,-7.291736E-02
-2.2600000000E-02,-6.250069E-02
-2.2500000000E-02,-7.291736E-02
-2.2400000000E-02,-7.291736E-02
-2.2300000000E-02,-5.208402E-02
-2.2200000000E-02,-4.166735E-02
-2.2100000000E-02,-4.166735E-02
-2.2000000000E-02,-5.208402E-02
-2.1900000000E-02,-5.208402E-02
-2.1800000000E-02,-6.250069E-02
-2.1700000000E-02,-4.166735E-02
-2.1600000000E-02,-7.291736E-02
-2.1500000000E-02,-4.166735E-02
-2.1400000000E-02,-5.208402E-02
-2.1300000000E-02,-5.208402E-02
-2.1200000000E-02,-5.208402E-02
-2.1100000000E-02,-4.166735E-02
-2.1000000000E-02,-7.291736E-02
-2.0900000000E-02,-6.250069E-02
-2.0800000000E-02,-6.250069E-02
-2.0700000000E-02,-8.333402E-02
-2.0600000000E-02,-7.291736E-02
-2.0500000000E-02,-5.208402E-02
-2.0400000000E-02,-8.333402E-02
-2.0300000000E-02,-4.166735E-02
-2.0200000000E-02,-7.291736E-02
-2.0100000000E-02,-4.166735E-02
-2.0000000000E-02,-5.208402E-02
-1.9900000000E-02,-6.250069E-02
-1.9800000000E-02,-7.291736E-02
-1.9700000000E-02,-6.250069E-02
-1.9600000000E-02,-7.291736E-02
-1.9500000000E-02,-8.333402E-02
-1.9400000000E-02,-8.333402E-02
-1.9300000000E-02,-7.291736E-02
-1.9200000000E-02,-7.291736E-02
-1.9100000000E-02,-3.125069E-02
-1.9000000000E-02,-5.208402E-02
-1.8900000000E-02,-7.291736E-02
-1.8800000000E-02,-6.250069E-02
-1.8700000000E-02,-4.166735E-02
-1.8600000000E-02,-9.375069E-02
-1.8500000000E-02,-8.333402E-02
-1.8400000000E-02,-6.250069E-02
-1.8300000000E-02,-8.333402E-02
-1.8200000000E-02,-5.208402E-02
-1.8100000000E-02,-5.208402E-02
-1.8000000000E-02,-5.208402E-02
-1.7900000000E-02,-3.125069E-02
-1.7800000000E-02,-5.208402E-02
-1.7700000000E-02,-6.250069E-02
-1.7600000000E-02,-5.208402E-02
-1.7500000000E-02,-4.166735E-02
-1.7400000000E-02,-6.250069E-02
-1.7300000000E-02,-8.333402E-02
-1.7200000000E-02,-6.250069E-02
-1.7100000000E-02,-6.250069E-02
-1.7000000000E-02,-7.291736E-02
-1.6900000000E-02,-7.291736E-02
-1.6800000000E-02,-7.291736E-02
-1.6700000000E-02,-6.250069E-02
-1.6600000000E-02,-6.250069E-02
-1.6500000000E-02,-4.166735E-02
-1.6400000000E-02,-4.166735E-02
-1.6300000000E-02,-7.291736E-02
-1.6200000000E-02,-9.375069E-02
-1.6100000000E-02,-7.291736E-02
-1.6000000000E-02,-5.208402E-02
-1.5900000000E-02,-1.041735E-02
-1.5800000000E-02,-3.125069E-02
-1.5700000000E-02,-8.333402E-02
-1.5600000000E-02,-6.250069E-02
-1.5500000000E-02,-6.250069E-02
-1.5400000000E-02,-4.166735E-02
-1.5300000000E-02,-5.208402E-02
-1.5200000000E-02,-3.125069E-02
-1.5100000000E-02,-5.208402E-02
-1.5000000000E-02,-7.291736E-02
-1.4900000000E-02,-5.208402E-02
-1.4800000000E-02,-6.250069E-02
-1.4700000000E-02,-6.250069E-02
-1.4600000000E-02,-4.166735E-02
-1.4500000000E-02,-3.125069E-02
-1.4400000000E-02,-3.125069E-02
-1.4300000000E-02,-4.166735E-02
-1.4200000000E-02,-7.291736E-02
-1.4100000000E-02,-7.291736E-02
-1.4000000000E-02,-5.208402E-02
-1.3900000000E-02,-8.333402E-02
-1.3800000000E-02,-8.333402E-02
-1.3700000000E-02,-9.375069E-02
-1.3600000000E-02,-4.166735E-02
-1.3500000000E-02,-7.291736E-02
-1.3400000000E-02,-3.125069E-02
-1.3300000000E-02,-5.208402E-02
-1.3200000000E-02,-4.166735E-02
-1.3100000000E-02,-5.208402E-02
-1.3000000000E-02,-6.250069E-02
-1.2900000000E-02,-5.208402E-02
-1.2800000000E-02,-4.166735E-02
-1.2700000000E-02,-8.333402E-02
-1.2600000000E-02,-5.208402E-02
-1.2500000000E-02,-6.250069E-02
-1.2400000000E-02,-6.250069E-02
-1.2300000000E-02,-6.250069E-02
-1.2200000000E-02,-7.291736E-02
-1.2100000000E-02,-6.250069E-02
-1.2000000000E-02,-7.291736E-02
-1.1900000000E-02,-7.291736E-02
-1.1800000000E-02,-8.333402E-02
-1.1700000000E-02,-6.250069E-02
-1.1600000000E-02,-6.250069E-02
-1.1500000000E-02,-3.125069E-02
-1.1400000000E-02,-5.208402E-02
-1.1300000000E-02,-6.250069E-02
-1.1200000000E-02,-4.166735E-02
-1.1100000000E-02,-5.208402E-02
-1.1000000000E-02,-4.166735E-02
-1.0900000000E-02,-3.125069E-02
-1.0800000000E-02,-5.208402E-02
-1.0700000000E-02,-7.291736E-02
-1.0600000000E-02,-6.250069E-02
-1.0500000000E-02,-5.208402E-02
-1.0400000000E-02,-4.166735E-02
-1.0300000000E-02,-6.250069E-02
-1.0200000000E-02,-6.250069E-02
-1.0100000000E-02,-8.333402E-02
-1.0000000000E-02,-6.250069E-02
-9.9000000000E-03,-5.208402E-02
-9.8000000000E-03,-4.166735E-02
-9.7000000000E-03,-7.291736E-02
-9.6000000000E-03,-7.291736E-02
-9.5000000000E-03,-6.250069E-02
-9.4000000000E-03,-6.250069E-02
-9.3000000000E-03,-7.291736E-02
-9.2000000000E-03,-7.291736E-02
-9.1000000000E-03,-8.333402E-02
-9.0000000000E-03,-7.291736E-02
-8.9000000000E-03,-7.291736E-02
-8.8000000000E-03,-2.083402E-02
-8.7000000000E-03,-4.166735E-02
-8.6000000000E-03,-3.125069E-02
-8.5000000000E-03,-5.208402E-02
-8.4000000000E-03,-7.291736E-02
-8.3000000000E-03,-9.375069E-02
-8.2000000000E-03,-5.208402E-02
-8.1000000000E-03,-4.166735E-02
-8.0000000000E-03,-9.375069E-02
-7.9000000000E-03,-5.208402E-02
-7.8000000000E-03,-5.208402E-02
-7.7000000000E-03,-6.250069E-02
-7.6000000000E-03,-4.166735E-02
-7.5000000000E-03,-1.041735E-02
-7.4000000000E-03,-5.208402E-02
-7.3000000000E-03,-5.208402E-02
-7.2000000000E-03,-5.208402E-02
-7.1000000000E-03,-3.125069E-02
-7.0000000000E-03,-5.208402E-02
-6.9000000000E-03,-5.208402E-02
-6.8000000000E-03,-6.250069E-02
-6.7000000000E-03,-4.166735E-02
-6.6000000000E-03,-6.250069E-02
-6.5000000000E-03,-4.166735E-02
-6.4000000000E-03,-7.291736E-02
-6.3000000000E-03,-6.250069E-02
-6.2000000000E-03,-6.250069E-02
-6.1000000000E-03,-8.333402E-02
-6.0000000000E-03,-4.166735E-02
-5.9000000000E-03,-6.250069E-02
-5.8000000000E-03,-4.166735E-02
-5.7000000000E-03,-5.208402E-02
-5.6000000000E-03,-4.166735E-02
-5.5000000000E-03,-9.375069E-02
-5.4000000000E-03,-7.291736E-02
-5.3000000000E-03,-4.166735E-02
-5.2000000000E-03,-7.291736E-02
-5.1000000000E-03,-4.166735E-02
-5.0000000000E-03,-4.166735E-02
-4.9000000000E-03,-8.333402E-02
-4.8000000000E-03,-4.166735E-02
-4.7000000000E-03,-6.250069E-02
-4.6000000000E-03,-5.208402E-02
-4.5000000000E-03,-3.125069E-02
-4.4000000000E-03,-5.208402E-02
-4.3000000000E-03,-6.250069E-02
-4.2000000000E-03,-6.250069E-02
-4.1000000000E-03,-7.291736E-02
-4.0000000000E-03,-8.333402E-02
-3.9000000000E-03,-4.166735E-02
-3.8000000000E-03,-7.291736E-02
-3.7000000000E-03,-4.166735E-02
-3.6000000000E-03,-5.208402E-02
-3.5000000000E-03,-7.291736E-02
-3.4000000000E-03,-5.208402E-02
-3.3000000000E-03,-5.208402E-02
-3.2000000000E-03,-5.208402E-02
-3.1000000000E-03,-5.208402E-02
-3.0000000000E-03,-6.250069E-02
-2.9000000000E-03,-6.250069E-02
-2.8000000000E-03,-6.250069E-02
-2.7000000000E-03,-3.125069E-02
-2.6000000000E-03,-4.166735E-02
-2.5000000000E-03,-5.208402E-02
-2.4000000000E-03,-6.250069E-02
-2.3000000000E-03,-3.125069E-02
-2.2000000000E-03,-3.125069E-02
-2.1000000000E-03,-4.166735E-02
-2.0000000000E-03,-6.250069E-02
-1.9000000000E-03,-5.208402E-02
-1.8000000000E-03,-5.208402E-02
-1.7000000000E-03,-4.166735E-02
-1.6000000000E-03,-7.291736E-02
-1.5000000000E-03,-7.291736E-02
-1.4000000000E-03,-6.250069E-02
-1.3000000000E-03,-6.250069E-02
-1.2000000000E-03,-8.333402E-02
-1.1000000000E-03,-9.375069E-02
-1.0000000000E-03,-4.166735E-02
-9.0000000000E-04,-6.250069E-02
-8.0000000000E-04,-4.166735E-02
-7.0000000000E-04,-5.208402E-02
-6.0000000000E-04,-4.166735E-02
-5.0000000000E-04,-6.250069E-02
-4.0000000000E-04,-8.333402E-02
-3.0000000000E-04,-8.333402E-02
-2.0000000000E-04,-6.250069E-02
-1.0000000000E-04,-5.208402E-02
+0.0000000000E+00,-8.333402E-02
+1.0000000000E-04,-5.208402E-02
+2.0000000000E-04,-7.291736E-02
+3.0000000000E-04,-7.291736E-02
+4.0000000000E-04,-7.291736E-02
+5.0000000000E-04,-4.166735E-02
+6.0000000000E-04,-6.250069E-02
+7.0000000000E-04,-7.291736E-02
+8.0000000000E-04,-6.250069E-02
+9.0000000000E-04,-4.166735E-02
+1.0000000000E-03,-7.291736E-02
+1.1000000000E-03,-5.208402E-02
+1.2000000000E-03,-4.166735E-02
+1.3000000000E-03,-7.291736E-02
+1.4000000000E-03,-4.166735E-02
+1.5000000000E-03,-5.208402E-02
+1.6000000000E-03,-5.208402E-02
+1.7000000000E-03,-6.250069E-02
+1.8000000000E-03,-5.208402E-02
+1.9000000000E-03,-5.208402E-02
+2.0000000000E-03,-7.291736E-02
+2.1000000000E-03,-5.208402E-02
+2.2000000000E-03,-6.250069E-02
+2.3000000000E-03,-3.125069E-02
+2.4000000000E-03,-7.291736E-02
+2.5000000000E-03,-3.125069E-02
+2.6000000000E-03,-2.083402E-02
+2.7000000000E-03,-5.208402E-02
+2.8000000000E-03,-1.041674E-01
+2.9000000000E-03,-4.166735E-02
+3.0000000000E-03,-5.208402E-02
+3.1000000000E-03,-4.166735E-02
+3.2000000000E-03,-4.166735E-02
+3.3000000000E-03,-6.250069E-02
+3.4000000000E-03,-2.083402E-02
+3.5000000000E-03,-5.208402E-02
+3.6000000000E-03,-7.291736E-02
+3.7000000000E-03,-5.208402E-02
+3.8000000000E-03,-7.291736E-02
+3.9000000000E-03,-4.166735E-02
+4.0000000000E-03,-5.208402E-02
+4.1000000000E-03,-4.166735E-02
+4.2000000000E-03,-6.250069E-02
+4.3000000000E-03,-4.166735E-02
+4.4000000000E-03,-6.250069E-02
+4.5000000000E-03,-4.166735E-02
+4.6000000000E-03,-5.208402E-02
+4.7000000000E-03,-5.208402E-02
+4.8000000000E-03,-4.166735E-02
+4.9000000000E-03,-6.250069E-02
+5.0000000000E-03,-5.208402E-02
+5.1000000000E-03,-6.250069E-02
+5.2000000000E-03,-5.208402E-02
+5.3000000000E-03,-4.166735E-02
+5.4000000000E-03,-4.166735E-02
+5.5000000000E-03,-6.250069E-02
+5.6000000000E-03,-6.250069E-02
+5.7000000000E-03,-4.166735E-02
+5.8000000000E-03,-2.083402E-02
+5.9000000000E-03,-5.208402E-02
+6.0000000000E-03,-3.125069E-02
+6.1000000000E-03,-5.208402E-02
+6.2000000000E-03,-7.291736E-02
+6.3000000000E-03,-6.250069E-02
+6.4000000000E-03,-6.250069E-02
+6.5000000000E-03,-5.208402E-02
+6.6000000000E-03,-7.291736E-02
+6.7000000000E-03,-5.208402E-02
+6.8000000000E-03,-4.166735E-02
+6.9000000000E-03,-6.250069E-02
+7.0000000000E-03,-6.250069E-02
+7.1000000000E-03,-4.166735E-02
+7.2000000000E-03,-7.291736E-02
+7.3000000000E-03,-6.250069E-02
+7.4000000000E-03,-6.250069E-02
+7.5000000000E-03,-7.291736E-02
+7.6000000000E-03,-7.291736E-02
+7.7000000000E-03,-7.291736E-02
+7.8000000000E-03,-7.291736E-02
+7.9000000000E-03,-3.125069E-02
+8.0000000000E-03,-6.250069E-02
+8.1000000000E-03,-5.208402E-02
+8.2000000000E-03,-2.083402E-02
+8.3000000000E-03,-8.333402E-02
+8.4000000000E-03,-4.166735E-02
+8.5000000000E-03,-3.125069E-02
+8.6000000000E-03,-4.166735E-02
+8.7000000000E-03,-4.166735E-02
+8.8000000000E-03,-7.291736E-02
+8.9000000000E-03,-7.291736E-02
+9.0000000000E-03,-7.291736E-02
+9.1000000000E-03,-8.333402E-02
+9.2000000000E-03,-5.208402E-02
+9.3000000000E-03,-5.208402E-02
+9.4000000000E-03,-8.333402E-02
+9.5000000000E-03,-6.250069E-02
+9.6000000000E-03,-5.208402E-02
+9.7000000000E-03,-6.250069E-02
+9.8000000000E-03,-6.250069E-02
+9.9000000000E-03,-5.208402E-02
+1.0000000000E-02,-6.250069E-02
+1.0100000000E-02,-3.125069E-02
+1.0200000000E-02,-4.166735E-02
+1.0300000000E-02,-6.250069E-02
+1.0400000000E-02,-5.208402E-02
+1.0500000000E-02,-8.333402E-02
+1.0600000000E-02,-5.208402E-02
+1.0700000000E-02,-6.250069E-02
+1.0800000000E-02,-3.125069E-02
+1.0900000000E-02,-4.166735E-02
+1.1000000000E-02,-5.208402E-02
+1.1100000000E-02,-6.250069E-02
+1.1200000000E-02,-4.166735E-02
+1.1300000000E-02,-5.208402E-02
+1.1400000000E-02,-4.166735E-02
+1.1500000000E-02,-5.208402E-02
+1.1600000000E-02,-6.250069E-02
+1.1700000000E-02,-5.208402E-02
+1.1800000000E-02,-5.208402E-02
+1.1900000000E-02,-6.250069E-02
+1.2000000000E-02,-6.250069E-02
+1.2100000000E-02,-7.291736E-02
+1.2200000000E-02,-3.125069E-02
+1.2300000000E-02,-3.125069E-02
+1.2400000000E-02,-5.208402E-02
+1.2500000000E-02,-7.291736E-02
+1.2600000000E-02,-7.291736E-02
+1.2700000000E-02,-6.250069E-02
+1.2800000000E-02,-5.208402E-02
+1.2900000000E-02,-7.291736E-02
+1.3000000000E-02,-5.208402E-02
+1.3100000000E-02,-4.166735E-02
+1.3200000000E-02,-5.208402E-02
+1.3300000000E-02,-4.166735E-02
+1.3400000000E-02,-5.208402E-02
+1.3500000000E-02,-6.250069E-02
+1.3600000000E-02,-7.291736E-02
+1.3700000000E-02,-4.166735E-02
+1.3800000000E-02,-4.166735E-02
+1.3900000000E-02,-5.208402E-02
+1.4000000000E-02,-6.250069E-02
+1.4100000000E-02,-5.208402E-02
+1.4200000000E-02,-6.250069E-02
+1.4300000000E-02,-8.333402E-02
+1.4400000000E-02,-4.166735E-02
+1.4500000000E-02,-4.166735E-02
+1.4600000000E-02,-6.250069E-02
+1.4700000000E-02,-7.291736E-02
+1.4800000000E-02,-8.333402E-02
+1.4900000000E-02,-4.166735E-02
+1.5000000000E-02,-5.208402E-02
+1.5100000000E-02,-3.125069E-02
+1.5200000000E-02,-6.250069E-02
+1.5300000000E-02,-5.208402E-02
+1.5400000000E-02,-7.291736E-02
+1.5500000000E-02,-7.291736E-02
+1.5600000000E-02,-8.333402E-02
+1.5700000000E-02,-6.250069E-02
+1.5800000000E-02,-5.208402E-02
+1.5900000000E-02,-6.250069E-02
+1.6000000000E-02,-6.250069E-02
+1.6100000000E-02,-3.125069E-02
+1.6200000000E-02,-5.208402E-02
+1.6300000000E-02,-5.208402E-02
+1.6400000000E-02,-4.166735E-02
+1.6500000000E-02,-7.291736E-02
+1.6600000000E-02,-6.250069E-02
+1.6700000000E-02,-6.250069E-02
+1.6800000000E-02,-8.333402E-02
+1.6900000000E-02,-6.250069E-02
+1.7000000000E-02,-1.041735E-02
+1.7100000000E-02,-5.208402E-02
+1.7200000000E-02,-3.125069E-02
+1.7300000000E-02,-6.250069E-02
+1.7400000000E-02,-3.125069E-02
+1.7500000000E-02,-5.208402E-02
+1.7600000000E-02,-6.250069E-02
+1.7700000000E-02,-5.208402E-02
+1.7800000000E-02,-6.250069E-02
+1.7900000000E-02,-3.125069E-02
+1.8000000000E-02,-7.291736E-02
+1.8100000000E-02,-3.125069E-02
+1.8200000000E-02,-2.083402E-02
+1.8300000000E-02,-7.291736E-02
+1.8400000000E-02,-6.250069E-02
+1.8500000000E-02,-5.208402E-02
+1.8600000000E-02,-7.291736E-02
+1.8700000000E-02,-3.125069E-02
+1.8800000000E-02,-4.166735E-02
+1.8900000000E-02,-5.208402E-02
+1.9000000000E-02,-6.250069E-02
+1.9100000000E-02,-3.125069E-02
+1.9200000000E-02,-5.208402E-02
+1.9300000000E-02,-5.208402E-02
+1.9400000000E-02,-6.250069E-02
+1.9500000000E-02,-9.375069E-02
+1.9600000000E-02,-5.208402E-02
+1.9700000000E-02,-4.166735E-02
+1.9800000000E-02,-6.250069E-02
+1.9900000000E-02,-7.291736E-02
+2.0000000000E-02,-6.250069E-02
+2.0100000000E-02,-4.166735E-02
+2.0200000000E-02,-6.250069E-02
+2.0300000000E-02,-6.250069E-02
+2.0400000000E-02,-6.250069E-02
+2.0500000000E-02,-4.166735E-02
+2.0600000000E-02,-7.291736E-02
+2.0700000000E-02,-5.208402E-02
+2.0800000000E-02,-5.208402E-02
+2.0900000000E-02,-5.208402E-02
+2.1000000000E-02,-4.166735E-02
+2.1100000000E-02,-5.208402E-02
+2.1200000000E-02,-5.208402E-02
+2.1300000000E-02,-5.208402E-02
+2.1400000000E-02,-4.166735E-02
+2.1500000000E-02,-4.166735E-02
