metingen/metingen 23 cm/metingen 2-4/usr_wf_C1_data.csv

Record Length,Analog:10000
Sample Interval,5.000000E-04
Vertical Units,V,
Vertical Scale,+1.000000E-01
Vertical Offset,+6.666667E-03
Horizontal Units,s
Horizontal Scale,+5.000000E-01
Model,SDS814X HD
Serial Number,SDS08A0X807112
Software Version,3.8.12.1.1.3.8
Source,CH1
Second,Value
-3.4080239521E-02,-4.166667E-04
-3.3580239521E-02,+0.000000E+00
-3.3080239521E-02,-2.083333E-04
-3.2580239521E-02,+0.000000E+00
-3.2080239521E-02,+0.000000E+00
-3.1580239521E-02,-4.166667E-04
-3.1080239521E-02,-6.250000E-04
-3.0580239521E-02,-2.083333E-04
-3.0080239521E-02,+6.250000E-04
-2.9580239521E-02,-4.166667E-04
-2.9080239521E-02,-1.041667E-03
-2.8580239521E-02,+8.333334E-04
-2.8080239521E-02,+2.083333E-04
-2.7580239521E-02,+4.166667E-04
-2.7080239521E-02,+6.250000E-04
-2.6580239521E-02,+8.333334E-04
-2.6080239521E-02,+6.250000E-04
-2.5580239521E-02,-2.083333E-04
-2.5080239521E-02,-2.083333E-04
-2.4580239521E-02,+0.000000E+00
-2.4080239521E-02,+0.000000E+00
-2.3580239521E-02,+0.000000E+00
-2.3080239521E-02,-2.083333E-04
-2.2580239521E-02,+0.000000E+00
-2.2080239521E-02,+2.083333E-04
-2.1580239521E-02,+2.083333E-04
-2.1080239521E-02,-2.083333E-04
-2.0580239521E-02,+2.083333E-04
-2.0080239521E-02,+6.250000E-04
-1.9580239521E-02,+0.000000E+00
-1.9080239521E-02,+0.000000E+00
-1.8580239521E-02,+2.083333E-04
-1.8080239521E-02,+8.333334E-04
-1.7580239521E-02,-4.166667E-04
-1.7080239521E-02,+6.250000E-04
-1.6580239521E-02,+4.166667E-04
-1.6080239521E-02,+0.000000E+00
-1.5580239521E-02,-2.083333E-04
-1.5080239521E-02,-4.166667E-04
-1.4580239521E-02,+2.083333E-04
-1.4080239521E-02,-4.166667E-04
-1.3580239521E-02,+0.000000E+00
-1.3080239521E-02,+0.000000E+00
-1.2580239521E-02,+0.000000E+00
-1.2080239521E-02,+4.166667E-04
-1.1580239521E-02,+4.166667E-04
-1.1080239521E-02,-4.166667E-04
-1.0580239521E-02,-4.166667E-04
-1.0080239521E-02,-4.166667E-04
-9.5802395210E-03,-4.166667E-04
-9.0802395210E-03,-6.250000E-04
-8.5802395210E-03,-4.166667E-04
-8.0802395210E-03,+2.083333E-04
-7.5802395210E-03,+8.333334E-04
-7.0802395210E-03,-2.083333E-04
-6.5802395210E-03,+6.250000E-04
-6.0802395210E-03,-6.250000E-04
-5.5802395210E-03,-2.083333E-04
-5.0802395210E-03,+6.250000E-04
-4.5802395210E-03,+6.250000E-04
-4.0802395210E-03,+1.458333E-03
-3.5802395210E-03,+1.041667E-03
-3.0802395210E-03,+5.208333E-03
-2.5802395210E-03,+3.750000E-03
-2.0802395210E-03,-1.666667E-03
-1.5802395210E-03,-2.500000E-03
-1.0802395210E-03,+6.250000E-04
-5.8023952096E-04,+2.916667E-03
-8.0239520958E-05,+1.729167E-02
+4.1976047904E-04,+9.395833E-02
+9.1976047904E-04,+1.029167E-01
+1.4197604790E-03,-1.529167E-01
+1.9197604790E-03,-3.979167E-02
+2.4197604790E-03,+7.270834E-02
+2.9197604790E-03,+1.160417E-01
+3.4197604790E-03,-1.481250E-01
+3.9197604790E-03,-4.916667E-02
+4.4197604790E-03,+7.125000E-02
+4.9197604790E-03,+1.218750E-01
+5.4197604790E-03,-1.464583E-01
+5.9197604790E-03,-5.062500E-02
+6.4197604790E-03,+7.083333E-02
+6.9197604790E-03,+1.314583E-01
+7.4197604790E-03,-1.437500E-01
+7.9197604790E-03,-5.041667E-02
+8.4197604790E-03,+6.750000E-02
+8.9197604790E-03,+1.352083E-01
+9.4197604790E-03,-1.400000E-01
+9.9197604790E-03,-5.000000E-02
+1.0419760479E-02,+6.895833E-02
+1.0919760479E-02,+1.385417E-01
+1.1419760479E-02,-1.379167E-01
+1.1919760479E-02,-5.145834E-02
+1.2419760479E-02,+6.520834E-02
+1.2919760479E-02,+1.395833E-01
+1.3419760479E-02,-1.337500E-01
+1.3919760479E-02,-5.229167E-02
+1.4419760479E-02,+6.250000E-02
+1.4919760479E-02,+1.389583E-01
+1.5419760479E-02,-1.352083E-01
+1.5919760479E-02,-5.479167E-02
+1.6419760479E-02,+5.750000E-02
+1.6919760479E-02,+1.404167E-01
+1.7419760479E-02,-1.297917E-01
+1.7919760479E-02,-5.770833E-02
+1.8419760479E-02,+5.270834E-02
+1.8919760479E-02,+1.370833E-01
+1.9419760479E-02,-1.300000E-01
+1.9919760479E-02,-6.333333E-02
+2.0419760479E-02,+4.895834E-02
+2.0919760479E-02,+1.412500E-01
+2.1419760479E-02,-1.252083E-01
+2.1919760479E-02,-6.895833E-02
+2.2419760479E-02,+4.291667E-02
+2.2919760479E-02,+1.402083E-01
+2.3419760479E-02,-1.218750E-01
+2.3919760479E-02,-7.208333E-02
+2.4419760479E-02,+3.916667E-02
+2.4919760479E-02,+1.427083E-01
+2.5419760479E-02,-1.204167E-01
+2.5919760479E-02,-7.645833E-02
+2.6419760479E-02,+3.375000E-02
+2.6919760479E-02,+1.439583E-01
+2.7419760479E-02,-1.112500E-01
+2.7919760479E-02,-7.937500E-02
+2.8419760479E-02,+3.020833E-02
+2.8919760479E-02,+1.410417E-01
+2.9419760479E-02,-1.058333E-01
+2.9919760479E-02,-8.166667E-02
+3.0419760479E-02,+2.687500E-02
+3.0919760479E-02,+1.447917E-01
+3.1419760479E-02,-9.791667E-02
+3.1919760479E-02,-8.229167E-02
+3.2419760479E-02,+2.229167E-02
+3.2919760479E-02,+1.445833E-01
+3.3419760479E-02,-9.000000E-02
+3.3919760479E-02,-8.250000E-02
+3.4419760479E-02,+2.083333E-02
+3.4919760479E-02,+1.458333E-01
+3.5419760479E-02,-8.250000E-02
+3.5919760479E-02,-8.520833E-02
+3.6419760479E-02,+1.937500E-02
+3.6919760479E-02,+1.472917E-01
+3.7419760479E-02,-7.333334E-02
+3.7919760479E-02,-8.416667E-02
+3.8419760479E-02,+1.750000E-02
+3.8919760479E-02,+1.481250E-01
+3.9419760479E-02,-7.125000E-02
+3.9919760479E-02,-8.437500E-02
+4.0419760479E-02,+1.666667E-02
+4.0919760479E-02,+1.489583E-01
+4.1419760479E-02,-6.708334E-02
+4.1919760479E-02,-8.479167E-02
+4.2419760479E-02,+1.604167E-02
+4.2919760479E-02,+1.450000E-01
+4.3419760479E-02,-6.500001E-02
+4.3919760479E-02,-8.541667E-02
+4.4419760479E-02,+1.333333E-02
+4.4919760479E-02,+1.431250E-01
+4.5419760479E-02,-6.250000E-02
+4.5919760479E-02,-8.666667E-02
+4.6419760479E-02,+9.583334E-03
+4.6919760479E-02,+1.389583E-01
+4.7419760479E-02,-6.166667E-02
+4.7919760479E-02,-8.854167E-02
+4.8419760479E-02,+6.250000E-03
+4.8919760479E-02,+1.360417E-01
+4.9419760479E-02,-5.708333E-02
+4.9919760479E-02,-9.083334E-02
+5.0419760479E-02,+3.750000E-03
+5.0919760479E-02,+1.333333E-01
+5.1419760479E-02,-5.270834E-02
+5.1919760479E-02,-9.270833E-02
+5.2419760479E-02,+4.166667E-04
+5.2919760479E-02,+1.316667E-01
+5.3419760479E-02,-4.791667E-02
+5.3919760479E-02,-9.500000E-02
+5.4419760479E-02,-3.125000E-03
+5.4919760479E-02,+1.287500E-01
+5.5419760479E-02,-4.312500E-02
+5.5919760479E-02,-9.500000E-02
+5.6419760479E-02,-5.208333E-03
+5.6919760479E-02,+1.264583E-01
+5.7419760479E-02,-3.708334E-02
+5.7919760479E-02,-9.604167E-02
+5.8419760479E-02,-8.750000E-03
+5.8919760479E-02,+1.237500E-01
+5.9419760479E-02,-2.729167E-02
+5.9919760479E-02,-9.562501E-02
+6.0419760479E-02,-1.062500E-02
+6.0919760479E-02,+1.197917E-01
+6.1419760479E-02,-2.041667E-02
+6.1919760479E-02,-9.395833E-02
+6.2419760479E-02,-1.291667E-02
+6.2919760479E-02,+1.185417E-01
+6.3419760479E-02,-1.270833E-02
+6.3919760479E-02,-9.291667E-02
+6.4419760479E-02,-1.541667E-02
+6.4919760479E-02,+1.164583E-01
+6.5419760479E-02,-7.291667E-03
+6.5919760479E-02,-9.125000E-02
+6.6419760479E-02,-1.812500E-02
+6.6919760479E-02,+1.154167E-01
+6.7419760479E-02,-1.875000E-03
+6.7919760479E-02,-9.104167E-02
+6.8419760479E-02,-1.916667E-02
+6.8919760479E-02,+1.133333E-01
+6.9419760479E-02,+1.458333E-03
+6.9919760479E-02,-9.020834E-02
+7.0419760479E-02,-1.937500E-02
+7.0919760479E-02,+1.114583E-01
+7.1419760479E-02,+2.083333E-03
+7.1919760479E-02,-9.041667E-02
+7.2419760479E-02,-2.166667E-02
+7.2919760479E-02,+1.081250E-01
+7.3419760479E-02,+3.125000E-03
+7.3919760479E-02,-9.083334E-02
+7.4419760479E-02,-2.375000E-02
+7.4919760479E-02,+1.054167E-01
+7.5419760479E-02,+3.750000E-03
+7.5919760479E-02,-9.104167E-02
+7.6419760479E-02,-2.875000E-02
+7.6919760479E-02,+1.014583E-01
+7.7419760479E-02,+5.625000E-03
+7.7919760479E-02,-9.020834E-02
+7.8419760479E-02,-2.958333E-02
+7.8919760479E-02,+9.812500E-02
+7.9419760479E-02,+7.291667E-03
+7.9919760479E-02,-9.041667E-02
+8.0419760479E-02,-3.145833E-02
+8.0919760479E-02,+9.708334E-02
+8.1419760479E-02,+1.187500E-02
+8.1919760479E-02,-9.062500E-02
+8.2419760479E-02,-3.458333E-02
+8.2919760479E-02,+9.437500E-02
+8.3419760479E-02,+1.500000E-02
+8.3919760479E-02,-8.854167E-02
+8.4419760479E-02,-3.562500E-02
+8.4919760479E-02,+9.291667E-02
+8.5419760479E-02,+1.958333E-02
+8.5919760479E-02,-8.666667E-02
+8.6419760479E-02,-3.812500E-02
+8.6919760479E-02,+9.125000E-02
+8.7419760479E-02,+2.395833E-02
+8.7919760479E-02,-8.416667E-02
+8.8419760479E-02,-3.916667E-02
+8.8919760479E-02,+8.979167E-02
+8.9419760479E-02,+2.895833E-02
+8.9919760479E-02,-8.062501E-02
+9.0419760479E-02,-4.104167E-02
+9.0919760479E-02,+8.729167E-02
+9.1419760479E-02,+3.437500E-02
+9.1919760479E-02,-7.666667E-02
+9.2419760479E-02,-4.208333E-02
+9.2919760479E-02,+8.458333E-02
+9.3419760479E-02,+3.833333E-02
+9.3919760479E-02,-7.541667E-02
+9.4419760479E-02,-4.416667E-02
+9.4919760479E-02,+8.479167E-02
+9.5419760479E-02,+4.229167E-02
+9.5919760479E-02,-7.395834E-02
+9.6419760479E-02,-4.625000E-02
+9.6919760479E-02,+8.208334E-02
+9.7419760479E-02,+4.395834E-02
+9.7919760479E-02,-7.416667E-02
+9.8419760479E-02,-4.791667E-02
+9.8919760479E-02,+7.875000E-02
+9.9419760479E-02,+4.395834E-02
+9.9919760479E-02,-7.229166E-02
+1.0041976048E-01,-4.916667E-02
+1.0091976048E-01,+7.583334E-02
+1.0141976048E-01,+4.250000E-02
+1.0191976048E-01,-7.270834E-02
+1.0241976048E-01,-5.166667E-02
+1.0291976048E-01,+7.479167E-02
+1.0341976048E-01,+4.270833E-02
+1.0391976048E-01,-7.229166E-02
+1.0441976048E-01,-5.395833E-02
+1.0491976048E-01,+7.187500E-02
+1.0541976048E-01,+4.354167E-02
+1.0591976048E-01,-7.062500E-02
+1.0641976048E-01,-5.541667E-02
+1.0691976048E-01,+7.000000E-02
+1.0741976048E-01,+4.395834E-02
+1.0791976048E-01,-6.916667E-02
+1.0841976048E-01,-5.645834E-02
+1.0891976048E-01,+6.791667E-02
+1.0941976048E-01,+4.520833E-02
+1.0991976048E-01,-6.645834E-02
+1.1041976048E-01,-5.833333E-02
+1.1091976048E-01,+6.604167E-02
+1.1141976048E-01,+4.833334E-02
+1.1191976048E-01,-6.562500E-02
+1.1241976048E-01,-6.020834E-02
+1.1291976048E-01,+6.583334E-02
+1.1341976048E-01,+5.187500E-02
+1.1391976048E-01,-6.208333E-02
+1.1441976048E-01,-6.000000E-02
+1.1491976048E-01,+6.416667E-02
+1.1541976048E-01,+5.416667E-02
+1.1591976048E-01,-5.812500E-02
+1.1641976048E-01,-6.125000E-02
+1.1691976048E-01,+6.291667E-02
+1.1741976048E-01,+5.812500E-02
+1.1791976048E-01,-5.500000E-02
+1.1841976048E-01,-6.250000E-02
+1.1891976048E-01,+6.104167E-02
+1.1941976048E-01,+6.020834E-02
+1.1991976048E-01,-5.250000E-02
+1.2041976048E-01,-6.312500E-02
+1.2091976048E-01,+5.895833E-02
+1.2141976048E-01,+6.250000E-02
+1.2191976048E-01,-4.979167E-02
+1.2241976048E-01,-6.541667E-02
+1.2291976048E-01,+5.583334E-02
+1.2341976048E-01,+6.354167E-02
+1.2391976048E-01,-4.812500E-02
+1.2441976048E-01,-6.729167E-02
+1.2491976048E-01,+5.375000E-02
+1.2541976048E-01,+6.458333E-02
+1.2591976048E-01,-4.666667E-02
+1.2641976048E-01,-6.875000E-02
+1.2691976048E-01,+5.166667E-02
+1.2741976048E-01,+6.229167E-02
+1.2791976048E-01,-4.604167E-02
+1.2841976048E-01,-7.041667E-02
+1.2891976048E-01,+4.895834E-02
+1.2941976048E-01,+6.312500E-02
+1.2991976048E-01,-4.541667E-02
+1.3041976048E-01,-7.145833E-02
+1.3091976048E-01,+4.604167E-02
+1.3141976048E-01,+6.208333E-02
+1.3191976048E-01,-4.354167E-02
+1.3241976048E-01,-7.333334E-02
+1.3291976048E-01,+4.458334E-02
+1.3341976048E-01,+6.187500E-02
+1.3391976048E-01,-4.250000E-02
+1.3441976048E-01,-7.562500E-02
+1.3491976048E-01,+4.250000E-02
+1.3541976048E-01,+6.395833E-02
+1.3591976048E-01,-3.916667E-02
+1.3641976048E-01,-7.500000E-02
+1.3691976048E-01,+4.020834E-02
+1.3741976048E-01,+6.437500E-02
+1.3791976048E-01,-3.625000E-02
+1.3841976048E-01,-7.541667E-02
+1.3891976048E-01,+3.875000E-02
+1.3941976048E-01,+6.687500E-02
+1.3991976048E-01,-3.312500E-02
+1.4041976048E-01,-7.687500E-02
+1.4091976048E-01,+3.812500E-02
+1.4141976048E-01,+6.854167E-02
+1.4191976048E-01,-3.000000E-02
+1.4241976048E-01,-7.645833E-02
+1.4291976048E-01,+3.604167E-02
+1.4341976048E-01,+7.104167E-02
+1.4391976048E-01,-2.645833E-02
+1.4441976048E-01,-7.687500E-02
+1.4491976048E-01,+3.458333E-02
+1.4541976048E-01,+7.250001E-02
+1.4591976048E-01,-2.354167E-02
+1.4641976048E-01,-7.687500E-02
+1.4691976048E-01,+3.333334E-02
+1.4741976048E-01,+7.250001E-02
+1.4791976048E-01,-2.041667E-02
+1.4841976048E-01,-7.854167E-02
+1.4891976048E-01,+2.958333E-02
+1.4941976048E-01,+7.270834E-02
+1.4991976048E-01,-1.770833E-02
+1.5041976048E-01,-8.020834E-02
+1.5091976048E-01,+2.645833E-02
+1.5141976048E-01,+7.291667E-02
+1.5191976048E-01,-1.541667E-02
+1.5241976048E-01,-8.145834E-02
+1.5291976048E-01,+2.416667E-02
+1.5341976048E-01,+7.187500E-02
+1.5391976048E-01,-1.395833E-02
+1.5441976048E-01,-8.250000E-02
+1.5491976048E-01,+2.291667E-02
+1.5541976048E-01,+7.187500E-02
+1.5591976048E-01,-1.312500E-02
+1.5641976048E-01,-8.375000E-02
+1.5691976048E-01,+2.020833E-02
+1.5741976048E-01,+7.083333E-02
+1.5791976048E-01,-1.229167E-02
+1.5841976048E-01,-8.500000E-02
+1.5891976048E-01,+1.833333E-02
+1.5941976048E-01,+6.895833E-02
+1.5991976048E-01,-1.062500E-02
+1.6041976048E-01,-8.583333E-02
+1.6091976048E-01,+1.687500E-02
+1.6141976048E-01,+6.854167E-02
+1.6191976048E-01,-7.916667E-03
+1.6241976048E-01,-8.520833E-02
+1.6291976048E-01,+1.541667E-02
+1.6341976048E-01,+6.937500E-02
+1.6391976048E-01,-5.625000E-03
+1.6441976048E-01,-8.541667E-02
+1.6491976048E-01,+1.416667E-02
+1.6541976048E-01,+6.979167E-02
+1.6591976048E-01,-2.500000E-03
+1.6641976048E-01,-8.562500E-02
+1.6691976048E-01,+1.291667E-02
+1.6741976048E-01,+7.104167E-02
+1.6791976048E-01,+2.083333E-04
+1.6841976048E-01,-8.354167E-02
+1.6891976048E-01,+1.291667E-02
+1.6941976048E-01,+7.312500E-02
+1.6991976048E-01,+2.291667E-03
+1.7041976048E-01,-8.437500E-02
+1.7091976048E-01,+1.104167E-02
+1.7141976048E-01,+7.250001E-02
+1.7191976048E-01,+5.625000E-03
+1.7241976048E-01,-8.416667E-02
+1.7291976048E-01,+9.583334E-03
+1.7341976048E-01,+7.166667E-02
+1.7391976048E-01,+7.708333E-03
+1.7441976048E-01,-8.541667E-02
+1.7491976048E-01,+8.125001E-03
+1.7541976048E-01,+7.125000E-02
+1.7591976048E-01,+1.125000E-02
+1.7641976048E-01,-8.562500E-02
+1.7691976048E-01,+5.000000E-03
+1.7741976048E-01,+6.895833E-02
+1.7791976048E-01,+1.312500E-02
+1.7841976048E-01,-8.583333E-02
+1.7891976048E-01,+2.291667E-03
+1.7941976048E-01,+6.875000E-02
+1.7991976048E-01,+1.354167E-02
+1.8041976048E-01,-8.729167E-02
+1.8091976048E-01,+4.166667E-04
+1.8141976048E-01,+6.708334E-02
+1.8191976048E-01,+1.500000E-02
+1.8241976048E-01,-8.729167E-02
+1.8291976048E-01,-1.250000E-03
+1.8341976048E-01,+6.708334E-02
+1.8391976048E-01,+1.729167E-02
+1.8441976048E-01,-8.916667E-02
+1.8491976048E-01,-1.666667E-03
+1.8541976048E-01,+6.479167E-02
+1.8591976048E-01,+1.791667E-02
+1.8641976048E-01,-8.958334E-02
+1.8691976048E-01,-3.125000E-03
+1.8741976048E-01,+6.479167E-02
+1.8791976048E-01,+2.062500E-02
+1.8841976048E-01,-8.833334E-02
+1.8891976048E-01,-4.166667E-03
+1.8941976048E-01,+6.416667E-02
+1.8991976048E-01,+2.250000E-02
+1.9041976048E-01,-8.750000E-02
+1.9091976048E-01,-4.791667E-03
+1.9141976048E-01,+6.395833E-02
+1.9191976048E-01,+2.583333E-02
+1.9241976048E-01,-8.687500E-02
+1.9291976048E-01,-6.041667E-03
+1.9341976048E-01,+6.500001E-02
+1.9391976048E-01,+2.895833E-02
+1.9441976048E-01,-8.625000E-02
+1.9491976048E-01,-7.291667E-03
+1.9541976048E-01,+6.479167E-02
+1.9591976048E-01,+3.145833E-02
+1.9641976048E-01,-8.604167E-02
+1.9691976048E-01,-6.666667E-03
+1.9741976048E-01,+6.354167E-02
+1.9791976048E-01,+3.395833E-02
+1.9841976048E-01,-8.562500E-02
+1.9891976048E-01,-8.125001E-03
+1.9941976048E-01,+6.250000E-02
+1.9991976048E-01,+3.500000E-02
+2.0041976048E-01,-8.583333E-02
+2.0091976048E-01,-9.583334E-03
+2.0141976048E-01,+6.125000E-02
+2.0191976048E-01,+3.625000E-02
+2.0241976048E-01,-8.541667E-02
+2.0291976048E-01,-1.145833E-02
+2.0341976048E-01,+5.958334E-02
+2.0391976048E-01,+3.812500E-02
+2.0441976048E-01,-8.583333E-02
+2.0491976048E-01,-1.416667E-02
+2.0541976048E-01,+5.791667E-02
+2.0591976048E-01,+4.000000E-02
+2.0641976048E-01,-8.562500E-02
+2.0691976048E-01,-1.666667E-02
+2.0741976048E-01,+5.645834E-02
+2.0791976048E-01,+4.145833E-02
+2.0841976048E-01,-8.604167E-02
+2.0891976048E-01,-1.812500E-02
+2.0941976048E-01,+5.583334E-02
+2.0991976048E-01,+4.250000E-02
+2.1041976048E-01,-8.687500E-02
+2.1091976048E-01,-1.937500E-02
+2.1141976048E-01,+5.416667E-02
+2.1191976048E-01,+4.541667E-02
+2.1241976048E-01,-8.583333E-02
+2.1291976048E-01,-2.000000E-02
+2.1341976048E-01,+5.375000E-02
+2.1391976048E-01,+4.625000E-02
+2.1441976048E-01,-8.437500E-02
+2.1491976048E-01,-2.104167E-02
+2.1541976048E-01,+5.270834E-02
+2.1591976048E-01,+4.875000E-02
+2.1641976048E-01,-8.270834E-02
+2.1691976048E-01,-2.083333E-02
+2.1741976048E-01,+5.208334E-02
+2.1791976048E-01,+5.145834E-02
+2.1841976048E-01,-8.145834E-02
+2.1891976048E-01,-2.208333E-02
+2.1941976048E-01,+5.291667E-02
+2.1991976048E-01,+5.333333E-02
+2.2041976048E-01,-8.145834E-02
+2.2091976048E-01,-2.270833E-02
+2.2141976048E-01,+5.083333E-02
+2.2191976048E-01,+5.562500E-02
+2.2241976048E-01,-8.020834E-02
+2.2291976048E-01,-2.375000E-02
+2.2341976048E-01,+5.125000E-02
+2.2391976048E-01,+5.812500E-02
+2.2441976048E-01,-7.958333E-02
+2.2491976048E-01,-2.312500E-02
+2.2541976048E-01,+4.895834E-02
+2.2591976048E-01,+5.875000E-02
+2.2641976048E-01,-7.958333E-02
+2.2691976048E-01,-2.604167E-02
+2.2741976048E-01,+4.750000E-02
+2.2791976048E-01,+6.000000E-02
+2.2841976048E-01,-7.833333E-02
+2.2891976048E-01,-2.833333E-02
+2.2941976048E-01,+4.520833E-02
+2.2991976048E-01,+6.000000E-02
+2.3041976048E-01,-7.791667E-02
+2.3091976048E-01,-3.041667E-02
+2.3141976048E-01,+4.416667E-02
+2.3191976048E-01,+6.083333E-02
+2.3241976048E-01,-7.791667E-02
+2.3291976048E-01,-3.187500E-02
+2.3341976048E-01,+4.187500E-02
+2.3391976048E-01,+6.229167E-02
+2.3441976048E-01,-7.687500E-02
+2.3491976048E-01,-3.395833E-02
+2.3541976048E-01,+4.083334E-02
+2.3591976048E-01,+6.437500E-02
+2.3641976048E-01,-7.583334E-02
+2.3691976048E-01,-3.583333E-02
+2.3741976048E-01,+4.020834E-02
+2.3791976048E-01,+6.604167E-02
+2.3841976048E-01,-7.395834E-02
+2.3891976048E-01,-3.604167E-02
+2.3941976048E-01,+3.937500E-02
+2.3991976048E-01,+6.791667E-02
+2.4041976048E-01,-7.166667E-02
+2.4091976048E-01,-3.666667E-02
+2.4141976048E-01,+3.854167E-02
+2.4191976048E-01,+6.895833E-02
+2.4241976048E-01,-6.937500E-02
+2.4291976048E-01,-3.708334E-02
+2.4341976048E-01,+3.812500E-02
+2.4391976048E-01,+7.145833E-02
+2.4441976048E-01,-6.791667E-02
+2.4491976048E-01,-3.770833E-02
+2.4541976048E-01,+3.625000E-02
+2.4591976048E-01,+7.229166E-02
+2.4641976048E-01,-6.666667E-02
+2.4691976048E-01,-3.791667E-02
+2.4741976048E-01,+3.562500E-02
+2.4791976048E-01,+7.354167E-02
+2.4841976048E-01,-6.604167E-02
+2.4891976048E-01,-3.916667E-02
+2.4941976048E-01,+3.375000E-02
+2.4991976048E-01,+7.375000E-02
+2.5041976048E-01,-6.479167E-02
+2.5091976048E-01,-4.125000E-02
+2.5141976048E-01,+3.375000E-02
+2.5191976048E-01,+7.437500E-02
+2.5241976048E-01,-6.437500E-02
+2.5291976048E-01,-4.250000E-02
+2.5341976048E-01,+3.000000E-02
+2.5391976048E-01,+7.458334E-02
+2.5441976048E-01,-6.312500E-02
+2.5491976048E-01,-4.395834E-02
+2.5541976048E-01,+2.895833E-02
+2.5591976048E-01,+7.416667E-02
+2.5641976048E-01,-6.270833E-02
+2.5691976048E-01,-4.437500E-02
+2.5741976048E-01,+2.791667E-02
+2.5791976048E-01,+7.458334E-02
+2.5841976048E-01,-6.145833E-02
+2.5891976048E-01,-4.541667E-02
+2.5941976048E-01,+2.541667E-02
+2.5991976048E-01,+7.500000E-02
+2.6041976048E-01,-5.916667E-02
+2.6091976048E-01,-4.770834E-02
+2.6141976048E-01,+2.458333E-02
+2.6191976048E-01,+7.666667E-02
+2.6241976048E-01,-5.645834E-02
+2.6291976048E-01,-4.729167E-02
+2.6341976048E-01,+2.395833E-02
+2.6391976048E-01,+7.750000E-02
+2.6441976048E-01,-5.333333E-02
+2.6491976048E-01,-4.833334E-02
+2.6541976048E-01,+2.208333E-02
+2.6591976048E-01,+7.916667E-02
+2.6641976048E-01,-5.208334E-02
+2.6691976048E-01,-4.833334E-02
+2.6741976048E-01,+2.187500E-02
+2.6791976048E-01,+8.020834E-02
+2.6841976048E-01,-4.937500E-02
+2.6891976048E-01,-4.875000E-02
+2.6941976048E-01,+2.145833E-02
+2.6991976048E-01,+8.062501E-02
+2.7041976048E-01,-4.666667E-02
+2.7091976048E-01,-4.979167E-02
+2.7141976048E-01,+1.937500E-02
+2.7191976048E-01,+8.000000E-02
+2.7241976048E-01,-4.541667E-02
+2.7291976048E-01,-5.041667E-02
+2.7341976048E-01,+1.770833E-02
